Name,Site,latitude,longitude,StnNo.,Active,Region,Rnames,PM2.5,SO2,CO,,,,,,,Rnames
Albion_Park_Sth,OEH,-34.577839,150.782544,2921,ACTIVE,ILLAWARRA,Albion_Park_Sth,0,1,0,,,,,,,
Bargo,OEH,-34.306187,150.580539,574,ACTIVE,SYD_SW,Bargo,0,1,0,,,,,,,
Bringelly,OEH,-33.917658,150.761939,171,ACTIVE,SYD_SW,Bringelly,0,1,0,,,,,,,
Chullora,OEH,-33.891572,151.046062,190,ACTIVE,SYD_E,Chullora,1,1,1,,,,,,,
Earlwood,OEH,-33.916185,151.135792,206,ACTIVE,SYD_E,Earlwood,1,0,0,,,,,,,
Kembla_Grange,OEH,-34.47442,150.81916,526,ACTIVE,ILLAWARRA,Kembla_Grange,0,0,0,,,,,,,
Lindfield,OEH,-33.781138,151.151009,70,ACTIVE,SYD_E,Lindfield,0,1,0,,,,,,,
Liverpool,OEH,-33.931338,150.90731,107,ACTIVE,SYD_SW,Liverpool,1,0,1,,,,,,,
Oakdale,OEH,-34.051688,150.498009,1570,ACTIVE,SYD_SW,Oakdale,0,0,0,,,,,,,
Parramatta_north,OEH,-33.799489,150.997812,919,ACTIVE,SYD_NW,Parramatta_north,0,0,0,,,,,,,
Prospect,OEH,-33.794246,150.914185,1148,ACTIVE,SYD_NW,Prospect,0,1,1,,,,,,,
Randwick,OEH,-33.931776,151.242802,33,ACTIVE,SYD_E,Randwick,0,1,0,,,,,,,
Richmond,OEH,-33.616436,150.747347,573,ACTIVE,SYD_NW,Richmond,1,1,0,,,,,,,
Rozelle,OEH,-33.864353,151.163933,39,ACTIVE,SYD_E,Rozelle,0,0,1,,,,,,,
St_Marys,OEH,-33.795155,150.766799,760,ACTIVE,SYD_NW,St_Marys,0,0,0,,,,,,,
Wollongong,OEH,-34.417064,150.887328,500,ACTIVE,ILLAWARRA,Wollongong,1,1,1,,,,,,,
