Param,Labs,units
NO,Nitrogen ,(ppb)
NO2,Nitrogen dioxide ,(ppb)
O3,Ozone,(ppb)
PM2.5,Fine Particulate Matter 2.5 mu*m,(mu*g/m^3)
PM10,Coarse Particles,(mu*g/m^3)
ws,Wind speed,(ms-1)
temp,Temperature,(deg C)
